<svg xmlns="http://www.w3.org/2000/svg" xmlns:xlink="http://www.w3.org/1999/xlink" width="430" height="430" viewBox="0 0 430 430">
  <defs>
    <clipPath id="clip-ccd-responsive-menu-btn_close">
      <rect width="430" height="430"/>
    </clipPath>
  </defs>
  <g id="ccd-responsive-menu-btn_close" data-name="ccd-responsive-menu-btn – close" clip-path="url(#clip-ccd-responsive-menu-btn_close)">
    <g id="Grupo_27" data-name="Grupo 27" transform="translate(-29 20)">
      <rect id="Rectángulo_9" data-name="Rectángulo 9" width="430" height="40" transform="translate(106.284 29) rotate(45)" fill="#fff"/>
      <rect id="Rectángulo_12" data-name="Rectángulo 12" width="430" height="40" transform="translate(410.34 57.284) rotate(135)" fill="#fff"/>
    </g>
  </g>
</svg>
